…
### Q2.10 Export graphs

Export both graphs and both interpretations to this slide deck:
<https://docs.google.com/presentation/d/1AJVu0eq5-OoRGi4UlBervrqKbFHOINvAB-8u0JaFzYM/edit?usp=sharing>

### Render to PDF

And submit the well-labeled PDF on Gradescope. Thanks!

``` r
lterdatasampler::nwt_pikas
```

    # A tibble: 109 × 8
       date       site     station utm_easting utm_northing sex   concentration_pg_g
       <date>     <fct>    <fct>         <dbl>        <dbl> <fct>              <dbl>
     1 2018-06-08 Cable G… Cable …      451373      4432963 male              11563.
     2 2018-06-08 Cable G… Cable …      451411      4432985 male              10629.
     3 2018-06-08 Cable G… Cable …      451462      4432991 male              10924.
     4 2018-06-13 West Kn… West K…      449317      4434093 male              10414.
     5 2018-06-13 West Kn… West K…      449342      4434141 male              13531.
     6 2018-06-13 West Kn… West K…      449323      4434273 <NA>               7799.
     7 2018-06-13 West Kn… West K…      449243      4434156 male               4715.
     8 2018-06-13 West Kn… West K…      449223      4434233 <NA>               2087.
     9 2018-06-13 West Kn… West K…      449244      4434292 male              12899.
    10 2018-06-13 West Kn… West K…      449438      4434201 male              11329.
    # ℹ 99 more rows
    # ℹ 1 more variable: elev_m <dbl>
…
